<svg width="395" height="86" viewBox="0 0 395 86" fill="none" xmlns="http://www.w3.org/2000/svg">
<path d="M132.821 32.192C133.418 34.368 133.717 36.736 133.717 39.296C133.717 41.6 133.375 43.8827 132.693 46.144C132.095 48.192 131.157 50.0053 129.877 51.584C128.725 53.0347 127.253 54.2293 125.461 55.168C123.797 56.0213 121.834 56.448 119.573 56.448C117.695 56.448 116.138 56.1707 114.901 55.616C113.493 54.976 112.319 54.1867 111.381 53.248V60.352C111.807 60.4373 112.17 60.5013 112.469 60.544C112.81 60.6293 113.087 60.6933 113.301 60.736C113.983 60.8213 114.303 60.864 114.26 60.864L114.645 60.928C115.711 61.184 116.245 61.8667 116.245 62.976V66.688H98.6445V62.976C98.6445 61.8667 99.1778 61.184 100.245 60.928L100.629 60.864L101.589 60.736L103.509 60.352V29.504L101.589 29.184C101.375 29.1413 101.183 29.0987 101.013 29.056C100.885 29.0133 100.757 28.992 100.629 28.992L100.245 28.928C99.1778 28.672 98.6445 28.0107 98.6445 26.944V23.168H108.309C108.821 23.168 109.269 23.296 109.653 23.552C109.994 23.7653 110.229 24.128 110.357 24.64L110.997 27.648C112.277 26.1973 113.791 24.9813 115.541 24C117.247 23.0613 119.253 22.592 121.557 22.592C123.434 22.592 125.077 22.9547 126.485 23.68C127.978 24.448 129.258 25.536 130.325 26.944C131.391 28.3093 132.223 30.0587 132.821 32.192ZM125.013 44.288C125.354 43.0507 125.525 41.408 125.525 39.36C125.525 37.312 125.375 35.6693 125.077 34.432C124.778 33.152 124.33 32.0853 123.733 31.232C123.135 30.3787 122.431 29.76 121.621 29.376C120.81 28.992 119.893 28.8 118.869 28.8C117.162 28.8 115.754 29.1413 114.645 29.824C113.45 30.5493 112.362 31.5307 111.381 32.768V47.488C112.234 48.5547 113.215 49.3227 114.325 49.792C115.306 50.2187 116.437 50.432 117.717 50.432C118.997 50.432 120.085 50.2187 120.981 49.792C121.834 49.408 122.645 48.7253 123.413 47.744C124.138 46.7627 124.671 45.6107 125.013 44.288ZM151.966 50.24C153.033 50.496 153.566 51.1573 153.566 52.224V56H135.966V52.224C135.966 51.1573 136.499 50.496 137.566 50.24L137.95 50.176L138.91 49.984L140.83 49.664V14.784L138.91 14.464C138.697 14.4213 138.505 14.3787 138.334 14.336C138.206 14.2933 138.078 14.272 137.95 14.272L137.566 14.208C136.499 13.952 135.966 13.2907 135.966 12.224V8.448H148.702V49.664L150.622 49.984L151.582 50.176L151.966 50.24ZM185.217 50.176C186.284 50.432 186.817 51.0933 186.817 52.16V55.936H179.265C178.454 55.936 177.857 55.8293 177.473 55.616C177.046 55.4453 176.726 54.976 176.513 54.208L175.809 51.904C174.956 52.7147 174.145 53.376 173.377 53.888C172.78 54.3147 171.948 54.784 170.881 55.296C170.113 55.6373 169.217 55.9147 168.193 56.128C167.126 56.3413 166.06 56.448 164.993 56.448C163.585 56.448 162.305 56.256 161.153 55.872C159.916 55.4453 158.913 54.8907 158.145 54.208C157.249 53.3973 156.588 52.4587 156.161 51.392C155.692 50.24 155.457 48.96 155.457 47.552C155.457 46.272 155.777 45.0347 156.417 43.84C157.057 42.6027 158.145 41.5147 159.681 40.576C161.302 39.552 163.308 38.7413 165.697 38.144C168.214 37.504 171.35 37.184 175.105 37.184V35.264C175.105 33.1307 174.636 31.488 173.697 30.336C172.801 29.2693 171.457 28.736 169.665 28.736C168.3 28.736 167.233 28.8853 166.465 29.184C165.484 29.568 164.737 29.9093 164.225 30.208L162.497 31.168C162.028 31.4667 161.452 31.616 160.769 31.616C160.214 31.616 159.745 31.488 159.361 31.232C159.105 31.0613 158.806 30.72 158.465 30.208L156.993 27.712C160.833 24.2133 165.377 22.464 170.625 22.464C172.545 22.464 174.273 22.784 175.809 23.424C177.302 24.064 178.561 24.9387 179.585 26.048C180.737 27.3707 181.548 28.7147 182.017 30.08C182.529 31.616 182.785 33.3227 182.785 35.2V49.728L184.513 50.048L185.217 50.176ZM175.105 41.984C172.716 41.984 170.796 42.1333 169.345 42.432C167.766 42.7733 166.508 43.1573 165.569 43.584C164.63 44.0107 163.969 44.5227 163.585 45.12C163.201 45.6747 163.009 46.336 163.009 47.104C163.009 48.5547 163.414 49.5573 164.225 50.112C165.078 50.7093 166.145 51.008 167.425 51.008C168.236 51.008 168.982 50.944 169.665 50.816C170.39 50.688 171.052 50.4533 171.649 50.112C172.417 49.6853 172.993 49.3227 173.377 49.024C173.974 48.5547 174.55 48.0427 175.105 47.488V41.984ZM216.608 51.072C215.584 52.224 214.645 53.0987 213.792 53.696C212.939 54.2507 211.872 54.8053 210.592 55.36C209.653 55.7013 208.523 55.9787 207.2 56.192C206.176 56.3627 205.003 56.448 203.68 56.448C201.589 56.448 199.691 56.0853 197.984 55.36C196.192 54.592 194.635 53.4827 193.312 52.032C191.904 50.496 190.837 48.7253 190.112 46.72C189.344 44.5867 188.96 42.176 188.96 39.488C188.96 37.056 189.301 34.8373 189.984 32.832C190.709 30.784 191.733 28.992 193.056 27.456C194.379 25.9627 196.043 24.7893 198.048 23.936C200.096 23.0827 202.379 22.656 204.896 22.656C207.627 22.656 211.083 23.4453 215.264 25.024L215.2 35.136H211.552C210.784 35.136 210.293 34.7307 210.08 33.92L209.568 29.312C207.989 28.8853 206.581 28.672 205.344 28.672C203.936 28.672 202.72 28.928 201.696 29.44C200.629 29.952 199.776 30.656 199.136 31.552C198.368 32.6187 197.835 33.7707 197.536 35.008C197.195 36.4587 197.024 37.952 197.024 39.488C197.024 41.2373 197.216 42.7947 197.6 44.16C197.984 45.568 198.517 46.72 199.2 47.616C199.925 48.512 200.779 49.216 201.76 49.728C202.827 50.1973 203.957 50.432 205.152 50.432C206.475 50.432 207.499 50.2827 208.224 49.984C209.163 49.6 209.824 49.2587 210.208 48.96C210.421 48.7893 210.635 48.64 210.848 48.512C211.104 48.3413 211.36 48.1493 211.616 47.936C211.957 47.6373 212.384 47.488 212.896 47.488C213.579 47.488 214.069 47.7227 214.368 48.192L216.608 51.072ZM234.143 22.656C236.234 22.656 238.132 22.976 239.839 23.616C241.46 24.2133 242.954 25.1947 244.319 26.56C245.556 27.7973 246.538 29.3547 247.263 31.232C247.988 33.152 248.351 35.2427 248.351 37.504C248.351 38.016 248.308 38.528 248.223 39.04C248.138 39.5093 248.052 39.808 247.967 39.936C247.882 40.1493 247.69 40.32 247.391 40.448C247.22 40.5333 246.922 40.576 246.495 40.576H226.207C226.463 43.9467 227.38 46.4213 228.959 48C230.538 49.5787 232.628 50.368 235.231 50.368C236.554 50.368 237.642 50.2187 238.495 49.92C239.434 49.6213 240.244 49.28 240.927 48.896C241.226 48.7253 241.524 48.576 241.823 48.448C242.164 48.2773 242.484 48.1067 242.783 47.936C243.252 47.6373 243.743 47.488 244.255 47.488C244.596 47.488 244.895 47.552 245.151 47.68C245.364 47.7653 245.556 47.936 245.727 48.192L248.031 51.072C247.05 52.1813 246.068 53.056 245.087 53.696C243.935 54.4213 242.804 54.976 241.695 55.36C240.628 55.7013 239.412 55.9787 238.047 56.192C236.98 56.3627 235.786 56.448 234.463 56.448C232.116 56.448 230.004 56.0853 228.127 55.36C226.25 54.6347 224.543 53.504 223.007 51.968C221.556 50.5173 220.404 48.6827 219.551 46.464C218.74 44.3307 218.335 41.792 218.335 38.848C218.335 36.7147 218.698 34.624 219.423 32.576C220.106 30.656 221.151 28.928 222.559 27.392C223.882 25.9413 225.524 24.7893 227.487 23.936C229.45 23.0827 231.668 22.656 234.143 22.656ZM234.271 28.288C232.01 28.288 230.218 28.9493 228.895 30.272C227.615 31.552 226.783 33.3867 226.399 35.776H241.247C241.247 34.88 241.098 33.92 240.799 32.896C240.543 32.0853 240.116 31.296 239.519 30.528C238.964 29.8453 238.239 29.312 237.343 28.928C236.362 28.5013 235.338 28.288 234.271 28.288ZM304.737 50.24C305.803 50.496 306.337 51.1573 306.337 52.224V56H293.601V35.136C293.601 33.0027 293.153 31.424 292.257 30.4C291.361 29.3333 290.017 28.8 288.225 28.8C287.499 28.8 286.731 28.9493 285.921 29.248C285.238 29.504 284.641 29.888 284.129 30.4C283.702 30.8267 283.297 31.488 282.913 32.384C282.614 33.1093 282.465 34.0267 282.465 35.136V49.664L284.321 49.984L285.281 50.176L285.665 50.24C286.731 50.496 287.265 51.1573 287.265 52.224V56H274.529V35.136C274.529 32.96 274.081 31.36 273.185 30.336C272.289 29.312 270.987 28.8 269.281 28.8C268.129 28.8 267.062 29.0773 266.081 29.632C265.185 30.144 264.267 30.9333 263.329 32V49.664L265.185 49.984L266.145 50.176L266.529 50.24C267.595 50.496 268.128 51.1573 268.128 52.224V56H250.593V52.224C250.593 51.1573 251.126 50.496 252.193 50.24L252.577 50.176C252.705 50.176 252.833 50.1547 252.961 50.112C253.131 50.0693 253.323 50.0267 253.536 49.984L255.393 49.664V29.504L253.536 29.184C253.323 29.1413 253.131 29.0987 252.961 29.056C252.833 29.0133 252.705 28.992 252.577 28.992L252.193 28.928C251.083 28.672 250.529 28.0107 250.529 26.944V23.168H260.257C261.238 23.168 261.899 23.6587 262.241 24.64L262.753 27.072C263.521 26.2187 264.118 25.6213 264.545 25.28C265.142 24.8107 265.825 24.3627 266.593 23.936C267.275 23.552 268.043 23.232 268.897 22.976C269.579 22.7627 270.475 22.656 271.585 22.656C273.718 22.656 275.425 23.2107 276.705 24.32C278.07 25.5147 279.073 27.008 279.713 28.8C280.225 27.6907 280.865 26.752 281.632 25.984C282.315 25.3013 283.147 24.6827 284.129 24.128C284.854 23.7013 285.835 23.3387 287.073 23.04C288.097 22.784 289.142 22.656 290.209 22.656C292.043 22.656 293.643 22.9333 295.009 23.488C296.502 24.0853 297.697 24.896 298.593 25.92C299.531 26.9867 300.257 28.288 300.769 29.824C301.281 31.36 301.537 33.1307 301.537 35.136V49.664L303.393 49.984C303.606 50.0267 303.777 50.0693 303.905 50.112C304.075 50.1547 304.225 50.176 304.353 50.176L304.737 50.24ZM324.331 22.656C326.421 22.656 328.32 22.976 330.027 23.616C331.648 24.2133 333.141 25.1947 334.507 26.56C335.744 27.7973 336.725 29.3547 337.451 31.232C338.176 33.152 338.539 35.2427 338.539 37.504C338.539 38.016 338.496 38.528 338.411 39.04C338.325 39.5093 338.24 39.808 338.155 39.936C338.069 40.1493 337.877 40.32 337.579 40.448C337.408 40.5333 337.109 40.576 336.683 40.576H316.395C316.651 43.9467 317.568 46.4213 319.147 48C320.725 49.5787 322.816 50.368 325.419 50.368C326.741 50.368 327.829 50.2187 328.683 49.92C329.621 49.6213 330.432 49.28 331.115 48.896C331.413 48.7253 331.712 48.576 332.011 48.448C332.352 48.2773 332.672 48.1067 332.971 47.936C333.44 47.6373 333.931 47.488 334.443 47.488C334.784 47.488 335.083 47.552 335.339 47.68C335.552 47.7653 335.744 47.936 335.915 48.192L338.219 51.072C337.237 52.1813 336.256 53.056 335.275 53.696C334.123 54.4213 332.992 54.976 331.883 55.36C330.816 55.7013 329.6 55.9787 328.235 56.192C327.168 56.3627 325.973 56.448 324.651 56.448C322.304 56.448 320.192 56.0853 318.315 55.36C316.437 54.6347 314.731 53.504 313.195 51.968C311.744 50.5173 310.592 48.6827 309.739 46.464C308.928 44.3307 308.523 41.792 308.523 38.848C308.523 36.7147 308.885 34.624 309.611 32.576C310.293 30.656 311.339 28.928 312.747 27.392C314.069 25.9413 315.712 24.7893 317.675 23.936C319.637 23.0827 321.856 22.656 324.331 22.656ZM324.458 28.288C322.197 28.288 320.405 28.9493 319.083 30.272C317.803 31.552 316.971 33.3867 316.587 35.776H331.435C331.435 34.88 331.285 33.92 330.987 32.896C330.731 32.0853 330.304 31.296 329.707 30.528C329.152 29.8453 328.427 29.312 327.531 28.928C326.549 28.5013 325.525 28.288 324.458 28.288ZM356.268 22.656C358.359 22.656 360.257 22.976 361.964 23.616C363.585 24.2133 365.079 25.1947 366.444 26.56C367.681 27.7973 368.663 29.3547 369.388 31.232C370.113 33.152 370.476 35.2427 370.476 37.504C370.476 38.016 370.433 38.528 370.348 39.04C370.263 39.5093 370.177 39.808 370.092 39.936C370.007 40.1493 369.815 40.32 369.516 40.448C369.345 40.5333 369.047 40.576 368.62 40.576H348.332C348.588 43.9467 349.505 46.4213 351.084 48C352.663 49.5787 354.753 50.368 357.356 50.368C358.679 50.368 359.767 50.2187 360.62 49.92C361.559 49.6213 362.369 49.28 363.052 48.896C363.351 48.7253 363.649 48.576 363.948 48.448C364.289 48.2773 364.609 48.1067 364.908 47.936C365.377 47.6373 365.868 47.488 366.38 47.488C366.721 47.488 367.02 47.552 367.276 47.68C367.489 47.7653 367.681 47.936 367.852 48.192L370.156 51.072C369.175 52.1813 368.193 53.056 367.212 53.696C366.06 54.4213 364.929 54.976 363.82 55.36C362.753 55.7013 361.537 55.9787 360.172 56.192C359.105 56.3627 357.911 56.448 356.588 56.448C354.241 56.448 352.129 56.0853 350.252 55.36C348.375 54.6347 346.668 53.504 345.132 51.968C343.681 50.5173 342.529 48.6827 341.676 46.464C340.865 44.3307 340.46 41.792 340.46 38.848C340.46 36.7147 340.823 34.624 341.548 32.576C342.231 30.656 343.276 28.928 344.684 27.392C346.007 25.9413 347.649 24.7893 349.612 23.936C351.575 23.0827 353.793 22.656 356.268 22.656ZM356.396 28.288C354.135 28.288 352.343 28.9493 351.02 30.272C349.74 31.552 348.908 33.3867 348.524 35.776H363.372C363.372 34.88 363.223 33.92 362.924 32.896C362.668 32.0853 362.241 31.296 361.644 30.528C361.089 29.8453 360.364 29.312 359.468 28.928C358.487 28.5013 357.463 28.288 356.396 28.288ZM386.03 56.512C383.171 56.512 380.974 55.7013 379.438 54.08C377.902 52.4587 377.134 50.24 377.134 47.424V29.12H373.806C373.464 29.12 373.102 28.9707 372.718 28.672C372.376 28.416 372.206 28.0107 372.206 27.456V24.256L377.518 23.424L379.182 14.464C379.224 14.08 379.416 13.76 379.758 13.504C380.099 13.248 380.504 13.12 380.974 13.12H385.07V23.488H393.71V29.12H385.07V46.912C385.07 47.8933 385.326 48.6827 385.838 49.28C386.35 49.8347 387.032 50.112 387.885 50.112C388.483 50.112 388.888 50.0693 389.102 49.984L389.934 49.6L390.638 49.216C390.766 49.1307 390.936 49.088 391.15 49.088C391.491 49.088 391.704 49.1307 391.79 49.216L392.238 49.728L394.606 53.568C393.496 54.464 392.174 55.1893 390.638 55.744C389.187 56.256 387.651 56.512 386.03 56.512Z" fill="#2D3958"/>
<path d="M3.05176e-05 38.9673C3.21772e-05 19.9836 17.4005 1 38.2825 1C59.1645 1 76.2498 18.0853 76.2498 38.9673C76.2498 56.5272 62.3828 75.2476 38.2825 75.2476V86C11 72 2.8858e-05 57.9509 3.05176e-05 38.9673ZM38.2825 57.9509C48.7235 57.9509 57.2661 49.4083 57.2661 38.9673C57.2661 28.5263 48.7235 19.9836 38.2825 19.9836C27.8415 19.9836 19.2988 28.5263 19.2988 38.9673C19.2988 49.4083 27.8415 57.9509 38.2825 57.9509Z" fill="#5956E0"/>
<path d="M38.2825 29.4755C38.2825 32.323 40.6554 34.2214 43.0284 34.2214C43.9776 34.2214 44.9268 33.7468 45.8759 33.2722C50.6219 39.4419 45.8759 48.4591 38.2825 48.4591C33.062 48.4591 28.7907 44.1878 28.7907 38.9673C28.7907 33.7468 33.062 29.4755 38.2825 29.4755Z" fill="#5956E0"/>
</svg>
